<svg xmlns="http://www.w3.org/2000/svg" width="19" height="19" viewBox="0 0 19 19">
  <g id="Group_28168" data-name="Group 28168" transform="translate(-1466.267 -430)">
    <g id="dashboard" transform="translate(1466.267 430)">
      <g id="Group_27523" data-name="Group 27523">
        <g id="Group_27522" data-name="Group 27522">
          <path id="Path_1931" data-name="Path 1931" d="M8.387,352H.742a.742.742,0,0,0-.742.742V357.2a.742.742,0,0,0,.742.742H8.387a.742.742,0,0,0,.742-.742v-4.453A.742.742,0,0,0,8.387,352Zm-.742,4.453H1.484v-2.969h6.16Z" transform="translate(0 -338.938)"/>
          <path id="Path_1932" data-name="Path 1932" d="M8.387,0H.742A.742.742,0,0,0,0,.742V11.578a.742.742,0,0,0,.742.742H8.387a.742.742,0,0,0,.742-.742V.742A.742.742,0,0,0,8.387,0ZM7.645,10.836H1.484V1.484h6.16Z"/>
          <path id="Path_1933" data-name="Path 1933" d="M274.387,0h-7.645A.742.742,0,0,0,266,.742V5.2a.742.742,0,0,0,.742.742h7.645a.742.742,0,0,0,.742-.742V.742A.742.742,0,0,0,274.387,0Zm-.742,4.453h-6.16V1.484h6.16Z" transform="translate(-256.129)"/>
          <path id="Path_1934" data-name="Path 1934" d="M274.387,180h-7.645a.742.742,0,0,0-.742.742v10.836a.742.742,0,0,0,.742.742h7.645a.742.742,0,0,0,.742-.742V180.742A.742.742,0,0,0,274.387,180Zm-.742,10.836h-6.16v-9.352h6.16Z" transform="translate(-256.129 -173.32)"/>
        </g>
      </g>
    </g>
  </g>
</svg>
